networks
…
tx <- tx_top %>%
  pivot_longer(!target,names_to='source',values_to='count')

az <- az_top %>%
  pivot_longer(!target,names_to='source',values_to='count')

ca <- ca_top %>%
  pivot_longer(!target,names_to='source',values_to='count')

## merge dataframe

move <- rbind(ny,tx,az,ca)
move

## # A tibble: 40 x 3
##    target         source   count
##    <chr>          <chr>    <dbl>
##  1 New Jersey     New York 64810
##  2 Florida        New York 63033
##  3 Pennsylvania   New York 43048
##  4 California     New York 34848
##  5 Connecticut    New York 27361
##  6 North Carolina New York 25596
##  7 Massachusetts  New York 19960
##  8 Texas          New York 18925
##  9 Virginia       New York 17983
## 10 South Carolina New York 12721
## # … with 30 more rows
…
